%YAML 1.1
%TAG !u! tag:unity3d.com,2011:
--- !u!114 &11400000
MonoBehaviour:
  m_ObjectHideFlags: 0
  m_CorrespondingSourceObject: {fileID: 0}
  m_PrefabInstance: {fileID: 0}
  m_PrefabAsset: {fileID: 0}
  m_GameObject: {fileID: 0}
  m_Enabled: 1
  m_EditorHideFlags: 0
  m_Script: {fileID: 11500000, guid: ef1eadc8431074a42a32f168716a6704, type: 3}
  m_Name: Hierro
  m_EditorClassIdentifier: 
  name: Hierro
  sprite: {fileID: 21300000, guid: b810caeeb08928e4f8bca311ba97d240, type: 3}
