%YAML 1.1
%TAG !u! tag:unity3d.com,2011:
--- !u!114 &11400000
MonoBehaviour:
  m_ObjectHideFlags: 0
  m_CorrespondingSourceObject: {fileID: 0}
  m_PrefabInstance: {fileID: 0}
  m_PrefabAsset: {fileID: 0}
  m_GameObject: {fileID: 0}
  m_Enabled: 1
  m_EditorHideFlags: 0
  m_Script: {fileID: 11500000, guid: 9d1514134bc4fbd41bb739b1b9a49231, type: 3}
  m_Name: New Rule Tile
  m_EditorClassIdentifier: 
  m_DefaultSprite: {fileID: -493553897, guid: b57e071909e32874db87aed12f7c29d4, type: 3}
  m_DefaultGameObject: {fileID: 0}
  m_DefaultColliderType: 1
  m_TilingRules:
  - m_Id: 1
    m_Sprites:
    - {fileID: -1635309019, guid: b57e071909e32874db87aed12f7c29d4, type: 3}
    m_GameObject: {fileID: 0}
    m_MinAnimationSpeed: 1
    m_MaxAnimationSpeed: 1
    m_PerlinScale: 0.5
    m_Output: 0
    m_ColliderType: 1
    m_RandomTransform: 0
    m_Neighbors: 02000000
    m_NeighborPositions:
    - {x: -1, y: 0, z: 0}
    m_RuleTransform: 3
  - m_Id: 0
    m_Sprites:
    - {fileID: 1734125191, guid: b57e071909e32874db87aed12f7c29d4, type: 3}
    m_GameObject: {fileID: 0}
    m_MinAnimationSpeed: 1
    m_MaxAnimationSpeed: 1
    m_PerlinScale: 0.5
    m_Output: 0
    m_ColliderType: 1
    m_RandomTransform: 0
    m_Neighbors: 0100000001000000010000000100000001000000020000000200000001000000
    m_NeighborPositions:
    - {x: 1, y: 1, z: 0}
    - {x: -1, y: -1, z: 0}
    - {x: 0, y: -1, z: 0}
    - {x: 1, y: -1, z: 0}
    - {x: 1, y: 0, z: 0}
    - {x: 0, y: 1, z: 0}
    - {x: -1, y: 1, z: 0}
    - {x: -1, y: 0, z: 0}
    m_RuleTransform: 4
  - m_Id: 3
    m_Sprites:
    - {fileID: 1249773265, guid: b57e071909e32874db87aed12f7c29d4, type: 3}
    m_GameObject: {fileID: 0}
    m_MinAnimationSpeed: 1
    m_MaxAnimationSpeed: 1
    m_PerlinScale: 0.5
    m_Output: 0
    m_ColliderType: 1
    m_RandomTransform: 0
    m_Neighbors: 0100000001000000010000000200000002000000020000000200000002000000
    m_NeighborPositions:
    - {x: 1, y: -1, z: 0}
    - {x: 1, y: 0, z: 0}
    - {x: 0, y: -1, z: 0}
    - {x: -1, y: 0, z: 0}
    - {x: 0, y: 1, z: 0}
    - {x: -1, y: 1, z: 0}
    - {x: 1, y: 1, z: 0}
    - {x: -1, y: -1, z: 0}
    m_RuleTransform: 4
  - m_Id: 2
    m_Sprites:
    - {fileID: -493553897, guid: b57e071909e32874db87aed12f7c29d4, type: 3}
    - {fileID: -628093573, guid: b57e071909e32874db87aed12f7c29d4, type: 3}
    m_GameObject: {fileID: 0}
    m_MinAnimationSpeed: 1
    m_MaxAnimationSpeed: 1
    m_PerlinScale: 0.5
    m_Output: 1
    m_ColliderType: 1
    m_RandomTransform: 0
    m_Neighbors: 
    m_NeighborPositions:
    - {x: -1, y: 1, z: 0}
    - {x: 0, y: 1, z: 0}
    - {x: 1, y: 1, z: 0}
    - {x: -1, y: 0, z: 0}
    - {x: 1, y: 0, z: 0}
    - {x: -1, y: -1, z: 0}
    - {x: 0, y: -1, z: 0}
    - {x: 1, y: -1, z: 0}
    m_RuleTransform: 0
