%YAML 1.1
%TAG !u! tag:unity3d.com,2011:
--- !u!114 &11400000
MonoBehaviour:
  m_ObjectHideFlags: 0
  m_CorrespondingSourceObject: {fileID: 0}
  m_PrefabInstance: {fileID: 0}
  m_PrefabAsset: {fileID: 0}
  m_GameObject: {fileID: 0}
  m_Enabled: 1
  m_EditorHideFlags: 0
  m_Script: {fileID: 11500000, guid: 399e639ee1ccfe344959716c0d5fc12d, type: 3}
  m_Name: Alegre
  m_EditorClassIdentifier: 
  levels:
  - maxFriendship: 50
    dialogues:
    - inkDialogueFile: {fileID: 102900000, guid: 36bf5e9a5d7ba6f40bb7cd28b8f549b9, type: 3}
      dialogueTextAsset: {fileID: 4900000, guid: 2953b4d9e67cff14885d89251357915d, type: 3}
  - maxFriendship: 100
    dialogues:
    - inkDialogueFile: {fileID: 102900000, guid: 9281e03d39ef5f94781b4e693baeb2ab, type: 3}
      dialogueTextAsset: {fileID: 4900000, guid: a2c287c00fee90e4bbbcb85396e804d3, type: 3}
  recruitmentDialogue:
    inkDialogueFile: {fileID: 102900000, guid: bddb78ebf219f154f8455011a57932d7, type: 3}
    dialogueTextAsset: {fileID: 4900000, guid: bedabb7fce334a549ac46f08d069345f, type: 3}
