%YAML 1.1
%TAG !u! tag:unity3d.com,2011:
--- !u!114 &11400000
MonoBehaviour:
  m_ObjectHideFlags: 0
  m_CorrespondingSourceObject: {fileID: 0}
  m_PrefabInstance: {fileID: 0}
  m_PrefabAsset: {fileID: 0}
  m_GameObject: {fileID: 0}
  m_Enabled: 1
  m_EditorHideFlags: 0
  m_Script: {fileID: 11500000, guid: afeac2604bdf0d4408065c835f74617a, type: 3}
  m_Name: PezRodaballo
  m_EditorClassIdentifier: 
  name: Rodaballo
  sprite: {fileID: 1821186279, guid: 1991bb9e75b519940a1379b3152a0a14, type: 3}
  m_EatFood: {fileID: 11400000, guid: fb589d04ccf6afa45a98cdc5c3d20408, type: 2}
  m_Calories: 15
