%YAML 1.1
%TAG !u! tag:unity3d.com,2011:
--- !u!114 &11400000
MonoBehaviour:
  m_ObjectHideFlags: 0
  m_CorrespondingSourceObject: {fileID: 0}
  m_PrefabInstance: {fileID: 0}
  m_PrefabAsset: {fileID: 0}
  m_GameObject: {fileID: 0}
  m_Enabled: 1
  m_EditorHideFlags: 0
  m_Script: {fileID: 11500000, guid: f10a87a5d11fe95409bab1971e17e7fd, type: 3}
  m_Name: CofreT1
  m_EditorClassIdentifier: 
  name: Cofre Tipo 1
  sprite: {fileID: -1425887329, guid: 64bb17f300549a141bc80306b01df837, type: 3}
  m_Prefab: {fileID: 3453134041058585862, guid: 2060c1adc979fe845afb5cd0d171f1bf, type: 3}
  m_AbleTiles:
  - {fileID: 11400000, guid: c102bb5c57e381d4e88b19f2ace3a669, type: 2}
  - {fileID: 11400000, guid: 649c0a00c971cd747a457beff8095399, type: 2}
  - {fileID: 11400000, guid: 040a051e881bb514282bbfe5e17a0639, type: 2}
  m_EstructureMask:
    serializedVersion: 2
    m_Bits: 2097119
  m_ItemSlots:
  - Item: {fileID: 0}
    Amount: 1
  - Item: {fileID: 0}
    Amount: 1
  - Item: {fileID: 0}
    Amount: 1
  - Item: {fileID: 0}
    Amount: 1
  - Item: {fileID: 0}
    Amount: 1
  - Item: {fileID: 0}
    Amount: 1
  - Item: {fileID: 0}
    Amount: 1
  - Item: {fileID: 0}
    Amount: 1
  - Item: {fileID: 0}
    Amount: 1
  - Item: {fileID: 0}
    Amount: 1
  - Item: {fileID: 0}
    Amount: 1
  - Item: {fileID: 0}
    Amount: 1
  - Item: {fileID: 0}
    Amount: 1
  - Item: {fileID: 0}
    Amount: 1
  - Item: {fileID: 0}
    Amount: 1
  - Item: {fileID: 0}
    Amount: 1
  - Item: {fileID: 0}
    Amount: 1
  - Item: {fileID: 0}
    Amount: 1
  - Item: {fileID: 0}
    Amount: 1
  - Item: {fileID: 0}
    Amount: 1
  - Item: {fileID: 0}
    Amount: 1
  - Item: {fileID: 0}
    Amount: 1
  - Item: {fileID: 0}
    Amount: 1
  - Item: {fileID: 0}
    Amount: 1
  - Item: {fileID: 0}
    Amount: 1
  - Item: {fileID: 0}
    Amount: 1
  - Item: {fileID: 0}
    Amount: 1
  - Item: {fileID: 0}
    Amount: 1
  - Item: {fileID: 0}
    Amount: 1
  - Item: {fileID: 0}
    Amount: 1
  - Item: {fileID: 0}
    Amount: 1
  - Item: {fileID: 0}
    Amount: 1
  - Item: {fileID: 0}
    Amount: 1
  - Item: {fileID: 0}
    Amount: 1
  - Item: {fileID: 0}
    Amount: 1
  - Item: {fileID: 0}
    Amount: 1
