%YAML 1.1
%TAG !u! tag:unity3d.com,2011:
--- !u!114 &11400000
MonoBehaviour:
  m_ObjectHideFlags: 0
  m_CorrespondingSourceObject: {fileID: 0}
  m_PrefabInstance: {fileID: 0}
  m_PrefabAsset: {fileID: 0}
  m_GameObject: {fileID: 0}
  m_Enabled: 1
  m_EditorHideFlags: 0
  m_Script: {fileID: 11500000, guid: f6035f4f1091d984f8f5808abe65b328, type: 3}
  m_Name: CookieManual
  m_EditorClassIdentifier: 
  name: CookieManual
  sprite: {fileID: 21300000, guid: 2dafe0852f27d6c40bae410930d8bed4, type: 3}
  m_cookBook: {fileID: 11400000, guid: be270b5b5a5f928429055a5c31954632, type: 2}
  m_PosDesbloquejar: 0
