%YAML 1.1
%TAG !u! tag:unity3d.com,2011:
--- !u!114 &11400000
MonoBehaviour:
  m_ObjectHideFlags: 0
  m_CorrespondingSourceObject: {fileID: 0}
  m_PrefabInstance: {fileID: 0}
  m_PrefabAsset: {fileID: 0}
  m_GameObject: {fileID: 0}
  m_Enabled: 1
  m_EditorHideFlags: 0
  m_Script: {fileID: 11500000, guid: 3ed2855f3f6b3ed42939221888d8a50a, type: 3}
  m_Name: LLaveDeCarne
  m_EditorClassIdentifier: 
  name: Llave de carne
  sprite: {fileID: 21300000, guid: 246b3a89f2a71564598ebcd60cc495a7, type: 3}
  energiaQueGasta: 0
  m_EstructuraMask:
    serializedVersion: 2
    m_Bits: 4096
