%YAML 1.1
%TAG !u! tag:unity3d.com,2011:
--- !u!114 &11400000
MonoBehaviour:
  m_ObjectHideFlags: 0
  m_CorrespondingSourceObject: {fileID: 0}
  m_PrefabInstance: {fileID: 0}
  m_PrefabAsset: {fileID: 0}
  m_GameObject: {fileID: 0}
  m_Enabled: 1
  m_EditorHideFlags: 0
  m_Script: {fileID: 11500000, guid: c9e7b3cb6aecea244a2816c5d5336d79, type: 3}
  m_Name: CraftCuchilloDeHierro
  m_EditorClassIdentifier: 
  description: 
  ingredients:
  - ingredient: {fileID: 11400000, guid: 4306160170b6b1c49972bed26846db21, type: 2}
    quantity: 2
  - ingredient: {fileID: 11400000, guid: 0285511f2c3b0d74abb0d967fb7c936f, type: 2}
    quantity: 1
  result: {fileID: 11400000, guid: 122a5b03585c5d040bf73007be1e2996, type: 2}
