%YAML 1.1
%TAG !u! tag:unity3d.com,2011:
--- !u!114 &11400000
MonoBehaviour:
  m_ObjectHideFlags: 0
  m_CorrespondingSourceObject: {fileID: 0}
  m_PrefabInstance: {fileID: 0}
  m_PrefabAsset: {fileID: 0}
  m_GameObject: {fileID: 0}
  m_Enabled: 1
  m_EditorHideFlags: 0
  m_Script: {fileID: 11500000, guid: 374e2975196aa894991d7fc480ee45be, type: 3}
  m_Name: ArmaMelee
  m_EditorClassIdentifier: 
  name: Espada
  sprite: {fileID: 21300000, guid: 1eb8169b92bc6e34db25273ec54c070b, type: 3}
  energiaQueGasta: 8
  dmg: 10
  cooldown: 0.75
  probCritico: 15
  areaAttack: 1
  isAble: 1
  m_GameEvent: {fileID: 11400000, guid: 5985682c9b597b04f9ed0bfed11b8fe5, type: 2}
  m_WasteEnergy: {fileID: 11400000, guid: 97d8cfce724eb8f4cac3a3c20d9ed464, type: 2}
