%YAML 1.1
%TAG !u! tag:unity3d.com,2011:
--- !u!114 &11400000
MonoBehaviour:
  m_ObjectHideFlags: 0
  m_CorrespondingSourceObject: {fileID: 0}
  m_PrefabInstance: {fileID: 0}
  m_PrefabAsset: {fileID: 0}
  m_GameObject: {fileID: 0}
  m_Enabled: 1
  m_EditorHideFlags: 0
  m_Script: {fileID: 11500000, guid: db744f754750d8b4ea217d8ae5944e1c, type: 3}
  m_Name: GalledaDeHierro
  m_EditorClassIdentifier: 
  name: Galleda de hierro
  sprite: {fileID: 21300000, guid: dd4da17b43647fe41afec90810a6088c, type: 3}
  energiaQueGasta: 0
  m_Water: {fileID: 11400000, guid: 7950c06d15717d64baf8f9feb9fdd729, type: 2}
  m_WasteEnergy: {fileID: 11400000, guid: 97d8cfce724eb8f4cac3a3c20d9ed464, type: 2}
  MaxWater: 100
  water: 0
  layersUI:
    serializedVersion: 2
    m_Bits: 4294967295
