%YAML 1.1
%TAG !u! tag:unity3d.com,2011:
--- !u!114 &11400000
MonoBehaviour:
  m_ObjectHideFlags: 0
  m_CorrespondingSourceObject: {fileID: 0}
  m_PrefabInstance: {fileID: 0}
  m_PrefabAsset: {fileID: 0}
  m_GameObject: {fileID: 0}
  m_Enabled: 1
  m_EditorHideFlags: 0
  m_Script: {fileID: 11500000, guid: c9e7b3cb6aecea244a2816c5d5336d79, type: 3}
  m_Name: CraftHachaDePiedra
  m_EditorClassIdentifier: 
  description: 
  ingredients:
  - ingredient: {fileID: 11400000, guid: 977cc2598b5c2f74eacaea2060099d60, type: 2}
    quantity: 12
  - ingredient: {fileID: 11400000, guid: a7b46a4dd7b625640859886efd7f6095, type: 2}
    quantity: 6
  result: {fileID: 11400000, guid: 0cf711cfbfc1593428e7d5cc58ae1460, type: 2}
