%YAML 1.1
%TAG !u! tag:unity3d.com,2011:
--- !u!114 &11400000
MonoBehaviour:
  m_ObjectHideFlags: 0
  m_CorrespondingSourceObject: {fileID: 0}
  m_PrefabInstance: {fileID: 0}
  m_PrefabAsset: {fileID: 0}
  m_GameObject: {fileID: 0}
  m_Enabled: 1
  m_EditorHideFlags: 0
  m_Script: {fileID: 11500000, guid: e43b1a8d24253a744a7072b12c300df6, type: 3}
  m_Name: MesaCrafteo
  m_EditorClassIdentifier: 
  name: Mesa de crafteo
  sprite: {fileID: 21300000, guid: 227c51d7491c6ad4d8054b3280e644df, type: 3}
  m_Prefab: {fileID: 3453134041058585862, guid: 0bdc0d74b1749c446b5ba10c8ec6ffa8, type: 3}
  m_AbleTiles:
  - {fileID: 11400000, guid: c102bb5c57e381d4e88b19f2ace3a669, type: 2}
  - {fileID: 11400000, guid: 649c0a00c971cd747a457beff8095399, type: 2}
  - {fileID: 11400000, guid: 040a051e881bb514282bbfe5e17a0639, type: 2}
  m_EstructureMask:
    serializedVersion: 2
    m_Bits: 2097119
