%YAML 1.1
%TAG !u! tag:unity3d.com,2011:
--- !u!114 &11400000
MonoBehaviour:
  m_ObjectHideFlags: 0
  m_CorrespondingSourceObject: {fileID: 0}
  m_PrefabInstance: {fileID: 0}
  m_PrefabAsset: {fileID: 0}
  m_GameObject: {fileID: 0}
  m_Enabled: 1
  m_EditorHideFlags: 0
  m_Script: {fileID: 11500000, guid: d2b4a3c53a56b9349ab52881822bbc70, type: 3}
  m_Name: CaniaDeMadera
  m_EditorClassIdentifier: 
  name: Cania de madera
  sprite: {fileID: 21300000, guid: beb6380b80e6b524aa24d6031adbc967, type: 3}
  energiaQueGasta: 15
  m_WaitingTime: 10
  m_FishingSpotInfo: {fileID: 11400000, guid: b75d52809071ea849b3ab251e433778f, type: 2}
  m_WasteEnergy: {fileID: 11400000, guid: 97d8cfce724eb8f4cac3a3c20d9ed464, type: 2}
