%YAML 1.1
%TAG !u! tag:unity3d.com,2011:
--- !u!114 &11400000
MonoBehaviour:
  m_ObjectHideFlags: 0
  m_CorrespondingSourceObject: {fileID: 0}
  m_PrefabInstance: {fileID: 0}
  m_PrefabAsset: {fileID: 0}
  m_GameObject: {fileID: 0}
  m_Enabled: 1
  m_EditorHideFlags: 0
  m_Script: {fileID: 11500000, guid: 8c489c3eede9ba44eb93c6c939ad738d, type: 3}
  m_Name: FarmInfo
  m_EditorClassIdentifier: 
  items: []
  resources: []
  animals: []
  enemies: []
  plants: []
  estructures: []
  barriers: []
  caldiers: []
  chests:
  - id: 1
    layer: 12
    pos: {x: 0.5, y: 2.5, z: 0}
    sprite: {fileID: 2078503782, guid: 64bb17f300549a141bc80306b01df837, type: 3}
    type: 3
    estructura: {fileID: 0}
    typeEstructure: 0
    items:
    - Item: {fileID: 11400000, guid: 8ac14d1c412bf884c87d6ff7b60de997, type: 2}
      Amount: 1
    - Item: {fileID: 11400000, guid: f3501c270695fc149b925930c2b4c617, type: 2}
      Amount: 1
    - Item: {fileID: 11400000, guid: 4403891219adf3b45b9411d7dac4a0d2, type: 2}
      Amount: 1
    - Item: {fileID: 11400000, guid: 122a5b03585c5d040bf73007be1e2996, type: 2}
      Amount: 1
    - Item: {fileID: 11400000, guid: 598b78218ed330744865ba6ea3555b56, type: 2}
      Amount: 1
    - Item: {fileID: 11400000, guid: 43d837dd5d35ad44c8d6bb2a8bc6351b, type: 2}
      Amount: 1
    - Item: {fileID: 11400000, guid: a0448f0020e1ec44a8c010f448e53216, type: 2}
      Amount: 1
    - Item: {fileID: 11400000, guid: e8d0bc6b72d711344937378d0fa002db, type: 2}
      Amount: 1
    - Item: {fileID: 11400000, guid: 7607aaeeed0f52746ac47d64fbc3aad1, type: 2}
      Amount: 1
    - Item: {fileID: 11400000, guid: 3f9ea95dbbc49934ab3700f44fdb499d, type: 2}
      Amount: 1
    - Item: {fileID: 11400000, guid: 3a83d732af89752478f96d009cb1b674, type: 2}
      Amount: 1
    - Item: {fileID: 0}
      Amount: 1
    - Item: {fileID: 11400000, guid: 3b26c00ce09c6f84c99e505eca0841f1, type: 2}
      Amount: 10
    - Item: {fileID: 11400000, guid: e0ee9589f43817b4f832b867275cd22a, type: 2}
      Amount: 1
    - Item: {fileID: 11400000, guid: 5e85ad3acced31c4a82a4c5f04334135, type: 2}
      Amount: 1
    - Item: {fileID: 11400000, guid: 9ec5960b3521a26428a2f440bc54ad45, type: 2}
      Amount: 99
    - Item: {fileID: 11400000, guid: 4306160170b6b1c49972bed26846db21, type: 2}
      Amount: 99
    - Item: {fileID: 11400000, guid: 3b3f85c168133cd4ea1cb6bce65afc59, type: 2}
      Amount: 99
    - Item: {fileID: 11400000, guid: 1d8b8b7e4084df84baaf52c68804c170, type: 2}
      Amount: 99
    - Item: {fileID: 11400000, guid: 8e2a8bb8c55dcf34ba302edbfb736b31, type: 2}
      Amount: 99
    - Item: {fileID: 11400000, guid: a7b46a4dd7b625640859886efd7f6095, type: 2}
      Amount: 99
    - Item: {fileID: 11400000, guid: 977cc2598b5c2f74eacaea2060099d60, type: 2}
      Amount: 99
    - Item: {fileID: 11400000, guid: 44d1e9e7dcd245e4abb511736ea156be, type: 2}
      Amount: 99
    - Item: {fileID: 11400000, guid: 0d42137d76f72904cb3e0932145275d1, type: 2}
      Amount: 99
    - Item: {fileID: 11400000, guid: b07b1126f5d2ca444821a05d650a53a1, type: 2}
      Amount: 99
    - Item: {fileID: 11400000, guid: 1bf8d958fdf29c64c80bf8bbcd2ecf13, type: 2}
      Amount: 99
    - Item: {fileID: 11400000, guid: d9c94e57df3f62e40ae77627a7d106c0, type: 2}
      Amount: 99
    - Item: {fileID: 11400000, guid: ebfbb9c442eebdd449f6133096ebdf69, type: 2}
      Amount: 99
    - Item: {fileID: 11400000, guid: 539a8e6daa69bee40a7f0a08473ef844, type: 2}
      Amount: 99
    - Item: {fileID: 11400000, guid: 66d12efda60e5e1418c02cc09d010c3c, type: 2}
      Amount: 99
    - Item: {fileID: 11400000, guid: 532a89a7f247623419ffad36cd09e840, type: 2}
      Amount: 99
    - Item: {fileID: 11400000, guid: 55f0161136f9cc44ea6850b8ca279f72, type: 2}
      Amount: 99
    - Item: {fileID: 11400000, guid: e050404a1ae591d43b5d04f44ab20a56, type: 2}
      Amount: 99
    - Item: {fileID: 11400000, guid: b729f23c00f782e45aae9c6321c2d39e, type: 2}
      Amount: 99
    - Item: {fileID: 11400000, guid: 0258c0b8266bda245aa91a4a7b5f49ca, type: 2}
      Amount: 1
    - Item: {fileID: 11400000, guid: 1b195f4add8becf4ebd051e2f534edab, type: 2}
      Amount: 1
  - id: 22
    layer: 12
    pos: {x: -7.5, y: 124.5, z: 0}
    sprite: {fileID: -1425887329, guid: 64bb17f300549a141bc80306b01df837, type: 3}
    type: 3
    estructura: {fileID: 0}
    typeEstructure: 0
    items:
    - Item: {fileID: 11400000, guid: 5e85ad3acced31c4a82a4c5f04334135, type: 2}
      Amount: 1
    - Item: {fileID: 11400000, guid: cf2bececd7d37444b89b1da4c153cd9a, type: 2}
      Amount: 1
    - Item: {fileID: 11400000, guid: bb90b1c3b4de3504799cfa88acb9d86e, type: 2}
      Amount: 1
    - Item: {fileID: 11400000, guid: 27b4c55569d89904ea754bb1663cfe30, type: 2}
      Amount: 3
    - Item: {fileID: 11400000, guid: 55f0161136f9cc44ea6850b8ca279f72, type: 2}
      Amount: 7
    - Item: {fileID: 0}
      Amount: 1
    - Item: {fileID: 0}
      Amount: 1
    - Item: {fileID: 0}
      Amount: 1
    - Item: {fileID: 0}
      Amount: 1
    - Item: {fileID: 0}
      Amount: 1
    - Item: {fileID: 0}
      Amount: 1
    - Item: {fileID: 0}
      Amount: 1
    - Item: {fileID: 0}
      Amount: 1
    - Item: {fileID: 0}
      Amount: 1
    - Item: {fileID: 0}
      Amount: 1
    - Item: {fileID: 0}
      Amount: 1
    - Item: {fileID: 0}
      Amount: 1
    - Item: {fileID: 0}
      Amount: 1
    - Item: {fileID: 0}
      Amount: 1
    - Item: {fileID: 0}
      Amount: 1
    - Item: {fileID: 0}
      Amount: 1
    - Item: {fileID: 0}
      Amount: 1
    - Item: {fileID: 0}
      Amount: 1
    - Item: {fileID: 0}
      Amount: 1
    - Item: {fileID: 0}
      Amount: 1
    - Item: {fileID: 0}
      Amount: 1
    - Item: {fileID: 0}
      Amount: 1
    - Item: {fileID: 0}
      Amount: 1
    - Item: {fileID: 0}
      Amount: 1
    - Item: {fileID: 0}
      Amount: 1
    - Item: {fileID: 0}
      Amount: 1
    - Item: {fileID: 0}
      Amount: 1
    - Item: {fileID: 0}
      Amount: 1
    - Item: {fileID: 0}
      Amount: 1
    - Item: {fileID: 0}
      Amount: 1
    - Item: {fileID: 0}
      Amount: 1
  - id: 70
    layer: 12
    pos: {x: -0.5, y: -1.5, z: 0}
    sprite: {fileID: -1425887329, guid: 64bb17f300549a141bc80306b01df837, type: 3}
    type: 3
    estructura: {fileID: 0}
    typeEstructure: 0
    items:
    - Item: {fileID: 0}
      Amount: 1
    - Item: {fileID: 0}
      Amount: 1
    - Item: {fileID: 0}
      Amount: 1
    - Item: {fileID: 0}
      Amount: 1
    - Item: {fileID: 0}
      Amount: 1
    - Item: {fileID: 0}
      Amount: 1
    - Item: {fileID: 0}
      Amount: 1
    - Item: {fileID: 0}
      Amount: 1
    - Item: {fileID: 0}
      Amount: 1
    - Item: {fileID: 0}
      Amount: 1
    - Item: {fileID: 0}
      Amount: 1
    - Item: {fileID: 0}
      Amount: 1
    - Item: {fileID: 0}
      Amount: 1
    - Item: {fileID: 0}
      Amount: 1
    - Item: {fileID: 0}
      Amount: 1
    - Item: {fileID: 0}
      Amount: 1
    - Item: {fileID: 0}
      Amount: 1
    - Item: {fileID: 0}
      Amount: 1
    - Item: {fileID: 0}
      Amount: 1
    - Item: {fileID: 0}
      Amount: 1
    - Item: {fileID: 0}
      Amount: 1
    - Item: {fileID: 0}
      Amount: 1
    - Item: {fileID: 0}
      Amount: 1
    - Item: {fileID: 0}
      Amount: 1
    - Item: {fileID: 0}
      Amount: 1
    - Item: {fileID: 0}
      Amount: 1
    - Item: {fileID: 0}
      Amount: 1
    - Item: {fileID: 0}
      Amount: 1
    - Item: {fileID: 0}
      Amount: 1
    - Item: {fileID: 0}
      Amount: 1
    - Item: {fileID: 0}
      Amount: 1
    - Item: {fileID: 0}
      Amount: 1
    - Item: {fileID: 0}
      Amount: 1
    - Item: {fileID: 0}
      Amount: 1
    - Item: {fileID: 0}
      Amount: 1
    - Item: {fileID: 0}
      Amount: 1
  - id: 37
    layer: 12
    pos: {x: 0.5, y: 2.5, z: 0}
    sprite: {fileID: 2078503782, guid: 64bb17f300549a141bc80306b01df837, type: 3}
    type: 3
    estructura: {fileID: 0}
    typeEstructure: 0
    items:
    - Item: {fileID: 11400000, guid: 8ac14d1c412bf884c87d6ff7b60de997, type: 2}
      Amount: 1
    - Item: {fileID: 11400000, guid: f3501c270695fc149b925930c2b4c617, type: 2}
      Amount: 1
    - Item: {fileID: 11400000, guid: 4403891219adf3b45b9411d7dac4a0d2, type: 2}
      Amount: 1
    - Item: {fileID: 11400000, guid: 122a5b03585c5d040bf73007be1e2996, type: 2}
      Amount: 1
    - Item: {fileID: 11400000, guid: 598b78218ed330744865ba6ea3555b56, type: 2}
      Amount: 1
    - Item: {fileID: 11400000, guid: 43d837dd5d35ad44c8d6bb2a8bc6351b, type: 2}
      Amount: 1
    - Item: {fileID: 11400000, guid: a0448f0020e1ec44a8c010f448e53216, type: 2}
      Amount: 1
    - Item: {fileID: 11400000, guid: e8d0bc6b72d711344937378d0fa002db, type: 2}
      Amount: 1
    - Item: {fileID: 11400000, guid: 7607aaeeed0f52746ac47d64fbc3aad1, type: 2}
      Amount: 1
    - Item: {fileID: 11400000, guid: 3f9ea95dbbc49934ab3700f44fdb499d, type: 2}
      Amount: 1
    - Item: {fileID: 11400000, guid: 3a83d732af89752478f96d009cb1b674, type: 2}
      Amount: 1
    - Item: {fileID: 11400000, guid: d9262eae167bc8743bf46df2e61b7762, type: 2}
      Amount: 1
    - Item: {fileID: 11400000, guid: 3b26c00ce09c6f84c99e505eca0841f1, type: 2}
      Amount: 10
    - Item: {fileID: 11400000, guid: e0ee9589f43817b4f832b867275cd22a, type: 2}
      Amount: 1
    - Item: {fileID: 11400000, guid: 5e85ad3acced31c4a82a4c5f04334135, type: 2}
      Amount: 1
    - Item: {fileID: 11400000, guid: 9ec5960b3521a26428a2f440bc54ad45, type: 2}
      Amount: 99
    - Item: {fileID: 11400000, guid: 4306160170b6b1c49972bed26846db21, type: 2}
      Amount: 99
    - Item: {fileID: 11400000, guid: 3b3f85c168133cd4ea1cb6bce65afc59, type: 2}
      Amount: 99
    - Item: {fileID: 11400000, guid: 1d8b8b7e4084df84baaf52c68804c170, type: 2}
      Amount: 99
    - Item: {fileID: 11400000, guid: 8e2a8bb8c55dcf34ba302edbfb736b31, type: 2}
      Amount: 99
    - Item: {fileID: 11400000, guid: a7b46a4dd7b625640859886efd7f6095, type: 2}
      Amount: 99
    - Item: {fileID: 11400000, guid: 977cc2598b5c2f74eacaea2060099d60, type: 2}
      Amount: 99
    - Item: {fileID: 11400000, guid: 44d1e9e7dcd245e4abb511736ea156be, type: 2}
      Amount: 99
    - Item: {fileID: 11400000, guid: 0d42137d76f72904cb3e0932145275d1, type: 2}
      Amount: 99
    - Item: {fileID: 11400000, guid: b07b1126f5d2ca444821a05d650a53a1, type: 2}
      Amount: 99
    - Item: {fileID: 11400000, guid: 1bf8d958fdf29c64c80bf8bbcd2ecf13, type: 2}
      Amount: 99
    - Item: {fileID: 11400000, guid: d9c94e57df3f62e40ae77627a7d106c0, type: 2}
      Amount: 99
    - Item: {fileID: 11400000, guid: ebfbb9c442eebdd449f6133096ebdf69, type: 2}
      Amount: 99
    - Item: {fileID: 11400000, guid: 539a8e6daa69bee40a7f0a08473ef844, type: 2}
      Amount: 99
    - Item: {fileID: 11400000, guid: 66d12efda60e5e1418c02cc09d010c3c, type: 2}
      Amount: 99
    - Item: {fileID: 11400000, guid: 532a89a7f247623419ffad36cd09e840, type: 2}
      Amount: 99
    - Item: {fileID: 11400000, guid: 55f0161136f9cc44ea6850b8ca279f72, type: 2}
      Amount: 99
    - Item: {fileID: 11400000, guid: e050404a1ae591d43b5d04f44ab20a56, type: 2}
      Amount: 99
    - Item: {fileID: 11400000, guid: b729f23c00f782e45aae9c6321c2d39e, type: 2}
      Amount: 99
    - Item: {fileID: 11400000, guid: 0258c0b8266bda245aa91a4a7b5f49ca, type: 2}
      Amount: 1
    - Item: {fileID: 11400000, guid: 1b195f4add8becf4ebd051e2f534edab, type: 2}
      Amount: 1
  - id: 24
    layer: 12
    pos: {x: 0.5, y: 2.5, z: 0}
    sprite: {fileID: 2078503782, guid: 64bb17f300549a141bc80306b01df837, type: 3}
    type: 3
    estructura: {fileID: 0}
    typeEstructure: 0
    items:
    - Item: {fileID: 11400000, guid: 8ac14d1c412bf884c87d6ff7b60de997, type: 2}
      Amount: 1
    - Item: {fileID: 11400000, guid: f3501c270695fc149b925930c2b4c617, type: 2}
      Amount: 1
    - Item: {fileID: 11400000, guid: 4403891219adf3b45b9411d7dac4a0d2, type: 2}
      Amount: 1
    - Item: {fileID: 11400000, guid: 122a5b03585c5d040bf73007be1e2996, type: 2}
      Amount: 1
    - Item: {fileID: 11400000, guid: 598b78218ed330744865ba6ea3555b56, type: 2}
      Amount: 1
    - Item: {fileID: 11400000, guid: 43d837dd5d35ad44c8d6bb2a8bc6351b, type: 2}
      Amount: 1
    - Item: {fileID: 11400000, guid: a0448f0020e1ec44a8c010f448e53216, type: 2}
      Amount: 1
    - Item: {fileID: 11400000, guid: e8d0bc6b72d711344937378d0fa002db, type: 2}
      Amount: 1
    - Item: {fileID: 11400000, guid: 7607aaeeed0f52746ac47d64fbc3aad1, type: 2}
      Amount: 1
    - Item: {fileID: 11400000, guid: 3f9ea95dbbc49934ab3700f44fdb499d, type: 2}
      Amount: 1
    - Item: {fileID: 11400000, guid: 3a83d732af89752478f96d009cb1b674, type: 2}
      Amount: 1
    - Item: {fileID: 11400000, guid: d9262eae167bc8743bf46df2e61b7762, type: 2}
      Amount: 1
    - Item: {fileID: 11400000, guid: 3b26c00ce09c6f84c99e505eca0841f1, type: 2}
      Amount: 10
    - Item: {fileID: 11400000, guid: e0ee9589f43817b4f832b867275cd22a, type: 2}
      Amount: 1
    - Item: {fileID: 11400000, guid: 5e85ad3acced31c4a82a4c5f04334135, type: 2}
      Amount: 1
    - Item: {fileID: 11400000, guid: 9ec5960b3521a26428a2f440bc54ad45, type: 2}
      Amount: 99
    - Item: {fileID: 11400000, guid: 4306160170b6b1c49972bed26846db21, type: 2}
      Amount: 99
    - Item: {fileID: 11400000, guid: 3b3f85c168133cd4ea1cb6bce65afc59, type: 2}
      Amount: 99
    - Item: {fileID: 11400000, guid: 1d8b8b7e4084df84baaf52c68804c170, type: 2}
      Amount: 99
    - Item: {fileID: 11400000, guid: 8e2a8bb8c55dcf34ba302edbfb736b31, type: 2}
      Amount: 99
    - Item: {fileID: 11400000, guid: a7b46a4dd7b625640859886efd7f6095, type: 2}
      Amount: 99
    - Item: {fileID: 11400000, guid: 977cc2598b5c2f74eacaea2060099d60, type: 2}
      Amount: 99
    - Item: {fileID: 11400000, guid: 44d1e9e7dcd245e4abb511736ea156be, type: 2}
      Amount: 99
    - Item: {fileID: 11400000, guid: 0d42137d76f72904cb3e0932145275d1, type: 2}
      Amount: 99
    - Item: {fileID: 11400000, guid: b07b1126f5d2ca444821a05d650a53a1, type: 2}
      Amount: 99
    - Item: {fileID: 11400000, guid: 1bf8d958fdf29c64c80bf8bbcd2ecf13, type: 2}
      Amount: 99
    - Item: {fileID: 11400000, guid: d9c94e57df3f62e40ae77627a7d106c0, type: 2}
      Amount: 99
    - Item: {fileID: 11400000, guid: ebfbb9c442eebdd449f6133096ebdf69, type: 2}
      Amount: 99
    - Item: {fileID: 11400000, guid: 539a8e6daa69bee40a7f0a08473ef844, type: 2}
      Amount: 99
    - Item: {fileID: 11400000, guid: 66d12efda60e5e1418c02cc09d010c3c, type: 2}
      Amount: 99
    - Item: {fileID: 11400000, guid: 532a89a7f247623419ffad36cd09e840, type: 2}
      Amount: 99
    - Item: {fileID: 11400000, guid: 55f0161136f9cc44ea6850b8ca279f72, type: 2}
      Amount: 99
    - Item: {fileID: 11400000, guid: e050404a1ae591d43b5d04f44ab20a56, type: 2}
      Amount: 99
    - Item: {fileID: 11400000, guid: b729f23c00f782e45aae9c6321c2d39e, type: 2}
      Amount: 99
    - Item: {fileID: 11400000, guid: 0258c0b8266bda245aa91a4a7b5f49ca, type: 2}
      Amount: 1
    - Item: {fileID: 11400000, guid: 1b195f4add8becf4ebd051e2f534edab, type: 2}
      Amount: 1
  - id: 6
    layer: 12
    pos: {x: 8.5, y: 6.5, z: 0}
    sprite: {fileID: -1425887329, guid: 64bb17f300549a141bc80306b01df837, type: 3}
    type: 3
    estructura: {fileID: 0}
    typeEstructure: 0
    items:
    - Item: {fileID: 0}
      Amount: 1
    - Item: {fileID: 0}
      Amount: 1
    - Item: {fileID: 0}
      Amount: 1
    - Item: {fileID: 0}
      Amount: 1
    - Item: {fileID: 0}
      Amount: 1
    - Item: {fileID: 0}
      Amount: 1
    - Item: {fileID: 0}
      Amount: 1
    - Item: {fileID: 0}
      Amount: 1
    - Item: {fileID: 0}
      Amount: 1
    - Item: {fileID: 0}
      Amount: 1
    - Item: {fileID: 0}
      Amount: 1
    - Item: {fileID: 0}
      Amount: 1
    - Item: {fileID: 0}
      Amount: 1
    - Item: {fileID: 0}
      Amount: 1
    - Item: {fileID: 0}
      Amount: 1
    - Item: {fileID: 0}
      Amount: 1
    - Item: {fileID: 0}
      Amount: 1
    - Item: {fileID: 0}
      Amount: 1
    - Item: {fileID: 0}
      Amount: 1
    - Item: {fileID: 0}
      Amount: 1
    - Item: {fileID: 0}
      Amount: 1
    - Item: {fileID: 0}
      Amount: 1
    - Item: {fileID: 0}
      Amount: 1
    - Item: {fileID: 0}
      Amount: 1
    - Item: {fileID: 0}
      Amount: 1
    - Item: {fileID: 0}
      Amount: 1
    - Item: {fileID: 0}
      Amount: 1
    - Item: {fileID: 0}
      Amount: 1
    - Item: {fileID: 0}
      Amount: 1
    - Item: {fileID: 0}
      Amount: 1
    - Item: {fileID: 0}
      Amount: 1
    - Item: {fileID: 0}
      Amount: 1
    - Item: {fileID: 0}
      Amount: 1
    - Item: {fileID: 0}
      Amount: 1
    - Item: {fileID: 0}
      Amount: 1
    - Item: {fileID: 0}
      Amount: 1
  - id: 0
    layer: 12
    pos: {x: -7.5, y: 124.5, z: 0}
    sprite: {fileID: -1425887329, guid: 64bb17f300549a141bc80306b01df837, type: 3}
    type: 3
    estructura: {fileID: 0}
    typeEstructure: 0
    items:
    - Item: {fileID: 11400000, guid: 5e85ad3acced31c4a82a4c5f04334135, type: 2}
      Amount: 1
    - Item: {fileID: 11400000, guid: cf2bececd7d37444b89b1da4c153cd9a, type: 2}
      Amount: 1
    - Item: {fileID: 11400000, guid: bb90b1c3b4de3504799cfa88acb9d86e, type: 2}
      Amount: 1
    - Item: {fileID: 11400000, guid: 27b4c55569d89904ea754bb1663cfe30, type: 2}
      Amount: 3
    - Item: {fileID: 11400000, guid: 55f0161136f9cc44ea6850b8ca279f72, type: 2}
      Amount: 7
    - Item: {fileID: 0}
      Amount: 1
    - Item: {fileID: 0}
      Amount: 1
    - Item: {fileID: 0}
      Amount: 1
    - Item: {fileID: 0}
      Amount: 1
    - Item: {fileID: 0}
      Amount: 1
    - Item: {fileID: 0}
      Amount: 1
    - Item: {fileID: 0}
      Amount: 1
    - Item: {fileID: 0}
      Amount: 1
    - Item: {fileID: 0}
      Amount: 1
    - Item: {fileID: 0}
      Amount: 1
    - Item: {fileID: 0}
      Amount: 1
    - Item: {fileID: 0}
      Amount: 1
    - Item: {fileID: 0}
      Amount: 1
    - Item: {fileID: 0}
      Amount: 1
    - Item: {fileID: 0}
      Amount: 1
    - Item: {fileID: 0}
      Amount: 1
    - Item: {fileID: 0}
      Amount: 1
    - Item: {fileID: 0}
      Amount: 1
    - Item: {fileID: 0}
      Amount: 1
    - Item: {fileID: 0}
      Amount: 1
    - Item: {fileID: 0}
      Amount: 1
    - Item: {fileID: 0}
      Amount: 1
    - Item: {fileID: 0}
      Amount: 1
    - Item: {fileID: 0}
      Amount: 1
    - Item: {fileID: 0}
      Amount: 1
    - Item: {fileID: 0}
      Amount: 1
    - Item: {fileID: 0}
      Amount: 1
    - Item: {fileID: 0}
      Amount: 1
    - Item: {fileID: 0}
      Amount: 1
    - Item: {fileID: 0}
      Amount: 1
    - Item: {fileID: 0}
      Amount: 1
  - id: 2
    layer: 12
    pos: {x: 8.5, y: 6.5, z: 0}
    sprite: {fileID: -1425887329, guid: 64bb17f300549a141bc80306b01df837, type: 3}
    type: 3
    estructura: {fileID: 0}
    typeEstructure: 0
    items:
    - Item: {fileID: 0}
      Amount: 1
    - Item: {fileID: 0}
      Amount: 1
    - Item: {fileID: 0}
      Amount: 1
    - Item: {fileID: 0}
      Amount: 1
    - Item: {fileID: 0}
      Amount: 1
    - Item: {fileID: 0}
      Amount: 1
    - Item: {fileID: 0}
      Amount: 1
    - Item: {fileID: 0}
      Amount: 1
    - Item: {fileID: 0}
      Amount: 1
    - Item: {fileID: 0}
      Amount: 1
    - Item: {fileID: 0}
      Amount: 1
    - Item: {fileID: 0}
      Amount: 1
    - Item: {fileID: 0}
      Amount: 1
    - Item: {fileID: 0}
      Amount: 1
    - Item: {fileID: 0}
      Amount: 1
    - Item: {fileID: 0}
      Amount: 1
    - Item: {fileID: 0}
      Amount: 1
    - Item: {fileID: 0}
      Amount: 1
    - Item: {fileID: 0}
      Amount: 1
    - Item: {fileID: 0}
      Amount: 1
    - Item: {fileID: 0}
      Amount: 1
    - Item: {fileID: 0}
      Amount: 1
    - Item: {fileID: 0}
      Amount: 1
    - Item: {fileID: 0}
      Amount: 1
    - Item: {fileID: 0}
      Amount: 1
    - Item: {fileID: 0}
      Amount: 1
    - Item: {fileID: 0}
      Amount: 1
    - Item: {fileID: 0}
      Amount: 1
    - Item: {fileID: 0}
      Amount: 1
    - Item: {fileID: 0}
      Amount: 1
    - Item: {fileID: 0}
      Amount: 1
    - Item: {fileID: 0}
      Amount: 1
    - Item: {fileID: 0}
      Amount: 1
    - Item: {fileID: 0}
      Amount: 1
    - Item: {fileID: 0}
      Amount: 1
    - Item: {fileID: 0}
      Amount: 1
  - id: 38
    layer: 12
    pos: {x: 8.5, y: 6.5, z: 0}
    sprite: {fileID: -1425887329, guid: 64bb17f300549a141bc80306b01df837, type: 3}
    type: 3
    estructura: {fileID: 0}
    typeEstructure: 0
    items:
    - Item: {fileID: 0}
      Amount: 1
    - Item: {fileID: 0}
      Amount: 1
    - Item: {fileID: 0}
      Amount: 1
    - Item: {fileID: 0}
      Amount: 1
    - Item: {fileID: 0}
      Amount: 1
    - Item: {fileID: 0}
      Amount: 1
    - Item: {fileID: 0}
      Amount: 1
    - Item: {fileID: 0}
      Amount: 1
    - Item: {fileID: 0}
      Amount: 1
    - Item: {fileID: 0}
      Amount: 1
    - Item: {fileID: 0}
      Amount: 1
    - Item: {fileID: 0}
      Amount: 1
    - Item: {fileID: 0}
      Amount: 1
    - Item: {fileID: 0}
      Amount: 1
    - Item: {fileID: 0}
      Amount: 1
    - Item: {fileID: 0}
      Amount: 1
    - Item: {fileID: 0}
      Amount: 1
    - Item: {fileID: 0}
      Amount: 1
    - Item: {fileID: 0}
      Amount: 1
    - Item: {fileID: 0}
      Amount: 1
    - Item: {fileID: 0}
      Amount: 1
    - Item: {fileID: 0}
      Amount: 1
    - Item: {fileID: 0}
      Amount: 1
    - Item: {fileID: 0}
      Amount: 1
    - Item: {fileID: 0}
      Amount: 1
    - Item: {fileID: 0}
      Amount: 1
    - Item: {fileID: 0}
      Amount: 1
    - Item: {fileID: 0}
      Amount: 1
    - Item: {fileID: 0}
      Amount: 1
    - Item: {fileID: 0}
      Amount: 1
    - Item: {fileID: 0}
      Amount: 1
    - Item: {fileID: 0}
      Amount: 1
    - Item: {fileID: 0}
      Amount: 1
    - Item: {fileID: 0}
      Amount: 1
    - Item: {fileID: 0}
      Amount: 1
    - Item: {fileID: 0}
      Amount: 1
  - id: 36
    layer: 12
    pos: {x: -7.5, y: 124.5, z: 0}
    sprite: {fileID: -1425887329, guid: 64bb17f300549a141bc80306b01df837, type: 3}
    type: 3
    estructura: {fileID: 0}
    typeEstructure: 0
    items:
    - Item: {fileID: 11400000, guid: 5e85ad3acced31c4a82a4c5f04334135, type: 2}
      Amount: 1
    - Item: {fileID: 11400000, guid: cf2bececd7d37444b89b1da4c153cd9a, type: 2}
      Amount: 1
    - Item: {fileID: 11400000, guid: bb90b1c3b4de3504799cfa88acb9d86e, type: 2}
      Amount: 1
    - Item: {fileID: 11400000, guid: 27b4c55569d89904ea754bb1663cfe30, type: 2}
      Amount: 3
    - Item: {fileID: 11400000, guid: 55f0161136f9cc44ea6850b8ca279f72, type: 2}
      Amount: 7
    - Item: {fileID: 0}
      Amount: 1
    - Item: {fileID: 0}
      Amount: 1
    - Item: {fileID: 0}
      Amount: 1
    - Item: {fileID: 0}
      Amount: 1
    - Item: {fileID: 0}
      Amount: 1
    - Item: {fileID: 0}
      Amount: 1
    - Item: {fileID: 0}
      Amount: 1
    - Item: {fileID: 0}
      Amount: 1
    - Item: {fileID: 0}
      Amount: 1
    - Item: {fileID: 0}
      Amount: 1
    - Item: {fileID: 0}
      Amount: 1
    - Item: {fileID: 0}
      Amount: 1
    - Item: {fileID: 0}
      Amount: 1
    - Item: {fileID: 0}
      Amount: 1
    - Item: {fileID: 0}
      Amount: 1
    - Item: {fileID: 0}
      Amount: 1
    - Item: {fileID: 0}
      Amount: 1
    - Item: {fileID: 0}
      Amount: 1
    - Item: {fileID: 0}
      Amount: 1
    - Item: {fileID: 0}
      Amount: 1
    - Item: {fileID: 0}
      Amount: 1
    - Item: {fileID: 0}
      Amount: 1
    - Item: {fileID: 0}
      Amount: 1
    - Item: {fileID: 0}
      Amount: 1
    - Item: {fileID: 0}
      Amount: 1
    - Item: {fileID: 0}
      Amount: 1
    - Item: {fileID: 0}
      Amount: 1
    - Item: {fileID: 0}
      Amount: 1
    - Item: {fileID: 0}
      Amount: 1
    - Item: {fileID: 0}
      Amount: 1
    - Item: {fileID: 0}
      Amount: 1
  - id: 13
    layer: 12
    pos: {x: -7.5, y: 124.5, z: 0}
    sprite: {fileID: -1425887329, guid: 64bb17f300549a141bc80306b01df837, type: 3}
    type: 3
    estructura: {fileID: 0}
    typeEstructure: 0
    items:
    - Item: {fileID: 11400000, guid: 5e85ad3acced31c4a82a4c5f04334135, type: 2}
      Amount: 1
    - Item: {fileID: 11400000, guid: cf2bececd7d37444b89b1da4c153cd9a, type: 2}
      Amount: 1
    - Item: {fileID: 11400000, guid: bb90b1c3b4de3504799cfa88acb9d86e, type: 2}
      Amount: 1
    - Item: {fileID: 11400000, guid: 27b4c55569d89904ea754bb1663cfe30, type: 2}
      Amount: 3
    - Item: {fileID: 11400000, guid: 55f0161136f9cc44ea6850b8ca279f72, type: 2}
      Amount: 7
    - Item: {fileID: 0}
      Amount: 1
    - Item: {fileID: 0}
      Amount: 1
    - Item: {fileID: 0}
      Amount: 1
    - Item: {fileID: 0}
      Amount: 1
    - Item: {fileID: 0}
      Amount: 1
    - Item: {fileID: 0}
      Amount: 1
    - Item: {fileID: 0}
      Amount: 1
    - Item: {fileID: 0}
      Amount: 1
    - Item: {fileID: 0}
      Amount: 1
    - Item: {fileID: 0}
      Amount: 1
    - Item: {fileID: 0}
      Amount: 1
    - Item: {fileID: 0}
      Amount: 1
    - Item: {fileID: 0}
      Amount: 1
    - Item: {fileID: 0}
      Amount: 1
    - Item: {fileID: 0}
      Amount: 1
    - Item: {fileID: 0}
      Amount: 1
    - Item: {fileID: 0}
      Amount: 1
    - Item: {fileID: 0}
      Amount: 1
    - Item: {fileID: 0}
      Amount: 1
    - Item: {fileID: 0}
      Amount: 1
    - Item: {fileID: 0}
      Amount: 1
    - Item: {fileID: 0}
      Amount: 1
    - Item: {fileID: 0}
      Amount: 1
    - Item: {fileID: 0}
      Amount: 1
    - Item: {fileID: 0}
      Amount: 1
    - Item: {fileID: 0}
      Amount: 1
    - Item: {fileID: 0}
      Amount: 1
    - Item: {fileID: 0}
      Amount: 1
    - Item: {fileID: 0}
      Amount: 1
    - Item: {fileID: 0}
      Amount: 1
    - Item: {fileID: 0}
      Amount: 1
  - id: 52
    layer: 12
    pos: {x: 0.5, y: 2.5, z: 0}
    sprite: {fileID: 2078503782, guid: 64bb17f300549a141bc80306b01df837, type: 3}
    type: 3
    estructura: {fileID: 0}
    typeEstructure: 0
    items:
    - Item: {fileID: 11400000, guid: 8ac14d1c412bf884c87d6ff7b60de997, type: 2}
      Amount: 1
    - Item: {fileID: 11400000, guid: f3501c270695fc149b925930c2b4c617, type: 2}
      Amount: 1
    - Item: {fileID: 11400000, guid: 4403891219adf3b45b9411d7dac4a0d2, type: 2}
      Amount: 1
    - Item: {fileID: 11400000, guid: 122a5b03585c5d040bf73007be1e2996, type: 2}
      Amount: 1
    - Item: {fileID: 11400000, guid: 598b78218ed330744865ba6ea3555b56, type: 2}
      Amount: 1
    - Item: {fileID: 11400000, guid: 43d837dd5d35ad44c8d6bb2a8bc6351b, type: 2}
      Amount: 1
    - Item: {fileID: 11400000, guid: a0448f0020e1ec44a8c010f448e53216, type: 2}
      Amount: 1
    - Item: {fileID: 11400000, guid: e8d0bc6b72d711344937378d0fa002db, type: 2}
      Amount: 1
    - Item: {fileID: 11400000, guid: 7607aaeeed0f52746ac47d64fbc3aad1, type: 2}
      Amount: 1
    - Item: {fileID: 11400000, guid: 3f9ea95dbbc49934ab3700f44fdb499d, type: 2}
      Amount: 1
    - Item: {fileID: 11400000, guid: 3a83d732af89752478f96d009cb1b674, type: 2}
      Amount: 1
    - Item: {fileID: 11400000, guid: d9262eae167bc8743bf46df2e61b7762, type: 2}
      Amount: 1
    - Item: {fileID: 11400000, guid: 3b26c00ce09c6f84c99e505eca0841f1, type: 2}
      Amount: 10
    - Item: {fileID: 11400000, guid: e0ee9589f43817b4f832b867275cd22a, type: 2}
      Amount: 1
    - Item: {fileID: 11400000, guid: 5e85ad3acced31c4a82a4c5f04334135, type: 2}
      Amount: 1
    - Item: {fileID: 11400000, guid: 9ec5960b3521a26428a2f440bc54ad45, type: 2}
      Amount: 99
    - Item: {fileID: 11400000, guid: 4306160170b6b1c49972bed26846db21, type: 2}
      Amount: 99
    - Item: {fileID: 11400000, guid: 3b3f85c168133cd4ea1cb6bce65afc59, type: 2}
      Amount: 99
    - Item: {fileID: 11400000, guid: 1d8b8b7e4084df84baaf52c68804c170, type: 2}
      Amount: 99
    - Item: {fileID: 11400000, guid: 8e2a8bb8c55dcf34ba302edbfb736b31, type: 2}
      Amount: 99
    - Item: {fileID: 11400000, guid: a7b46a4dd7b625640859886efd7f6095, type: 2}
      Amount: 99
    - Item: {fileID: 11400000, guid: 977cc2598b5c2f74eacaea2060099d60, type: 2}
      Amount: 99
    - Item: {fileID: 11400000, guid: 44d1e9e7dcd245e4abb511736ea156be, type: 2}
      Amount: 99
    - Item: {fileID: 11400000, guid: 0d42137d76f72904cb3e0932145275d1, type: 2}
      Amount: 99
    - Item: {fileID: 11400000, guid: b07b1126f5d2ca444821a05d650a53a1, type: 2}
      Amount: 99
    - Item: {fileID: 11400000, guid: 1bf8d958fdf29c64c80bf8bbcd2ecf13, type: 2}
      Amount: 99
    - Item: {fileID: 11400000, guid: d9c94e57df3f62e40ae77627a7d106c0, type: 2}
      Amount: 99
    - Item: {fileID: 11400000, guid: ebfbb9c442eebdd449f6133096ebdf69, type: 2}
      Amount: 99
    - Item: {fileID: 11400000, guid: 539a8e6daa69bee40a7f0a08473ef844, type: 2}
      Amount: 99
    - Item: {fileID: 11400000, guid: 66d12efda60e5e1418c02cc09d010c3c, type: 2}
      Amount: 99
    - Item: {fileID: 11400000, guid: 532a89a7f247623419ffad36cd09e840, type: 2}
      Amount: 99
    - Item: {fileID: 11400000, guid: 55f0161136f9cc44ea6850b8ca279f72, type: 2}
      Amount: 99
    - Item: {fileID: 11400000, guid: e050404a1ae591d43b5d04f44ab20a56, type: 2}
      Amount: 99
    - Item: {fileID: 11400000, guid: b729f23c00f782e45aae9c6321c2d39e, type: 2}
      Amount: 99
    - Item: {fileID: 11400000, guid: 0258c0b8266bda245aa91a4a7b5f49ca, type: 2}
      Amount: 1
    - Item: {fileID: 11400000, guid: 1b195f4add8becf4ebd051e2f534edab, type: 2}
      Amount: 1
  - id: 5
    layer: 12
    pos: {x: 0.5, y: 2.5, z: 0}
    sprite: {fileID: 2078503782, guid: 64bb17f300549a141bc80306b01df837, type: 3}
    type: 3
    estructura: {fileID: 0}
    typeEstructure: 0
    items:
    - Item: {fileID: 11400000, guid: 8ac14d1c412bf884c87d6ff7b60de997, type: 2}
      Amount: 1
    - Item: {fileID: 11400000, guid: f3501c270695fc149b925930c2b4c617, type: 2}
      Amount: 1
    - Item: {fileID: 11400000, guid: 4403891219adf3b45b9411d7dac4a0d2, type: 2}
      Amount: 1
    - Item: {fileID: 11400000, guid: 122a5b03585c5d040bf73007be1e2996, type: 2}
      Amount: 1
    - Item: {fileID: 11400000, guid: 598b78218ed330744865ba6ea3555b56, type: 2}
      Amount: 1
    - Item: {fileID: 11400000, guid: 43d837dd5d35ad44c8d6bb2a8bc6351b, type: 2}
      Amount: 1
    - Item: {fileID: 11400000, guid: a0448f0020e1ec44a8c010f448e53216, type: 2}
      Amount: 1
    - Item: {fileID: 11400000, guid: e8d0bc6b72d711344937378d0fa002db, type: 2}
      Amount: 1
    - Item: {fileID: 11400000, guid: 7607aaeeed0f52746ac47d64fbc3aad1, type: 2}
      Amount: 1
    - Item: {fileID: 11400000, guid: 3f9ea95dbbc49934ab3700f44fdb499d, type: 2}
      Amount: 1
    - Item: {fileID: 11400000, guid: 3a83d732af89752478f96d009cb1b674, type: 2}
      Amount: 1
    - Item: {fileID: 11400000, guid: d9262eae167bc8743bf46df2e61b7762, type: 2}
      Amount: 1
    - Item: {fileID: 11400000, guid: 3b26c00ce09c6f84c99e505eca0841f1, type: 2}
      Amount: 10
    - Item: {fileID: 11400000, guid: e0ee9589f43817b4f832b867275cd22a, type: 2}
      Amount: 1
    - Item: {fileID: 11400000, guid: 5e85ad3acced31c4a82a4c5f04334135, type: 2}
      Amount: 1
    - Item: {fileID: 11400000, guid: 9ec5960b3521a26428a2f440bc54ad45, type: 2}
      Amount: 99
    - Item: {fileID: 11400000, guid: 4306160170b6b1c49972bed26846db21, type: 2}
      Amount: 99
    - Item: {fileID: 11400000, guid: 3b3f85c168133cd4ea1cb6bce65afc59, type: 2}
      Amount: 99
    - Item: {fileID: 11400000, guid: 1d8b8b7e4084df84baaf52c68804c170, type: 2}
      Amount: 99
    - Item: {fileID: 11400000, guid: 8e2a8bb8c55dcf34ba302edbfb736b31, type: 2}
      Amount: 99
    - Item: {fileID: 11400000, guid: a7b46a4dd7b625640859886efd7f6095, type: 2}
      Amount: 99
    - Item: {fileID: 11400000, guid: 977cc2598b5c2f74eacaea2060099d60, type: 2}
      Amount: 99
    - Item: {fileID: 11400000, guid: 44d1e9e7dcd245e4abb511736ea156be, type: 2}
      Amount: 99
    - Item: {fileID: 11400000, guid: 0d42137d76f72904cb3e0932145275d1, type: 2}
      Amount: 99
    - Item: {fileID: 11400000, guid: b07b1126f5d2ca444821a05d650a53a1, type: 2}
      Amount: 99
    - Item: {fileID: 11400000, guid: 1bf8d958fdf29c64c80bf8bbcd2ecf13, type: 2}
      Amount: 99
    - Item: {fileID: 11400000, guid: d9c94e57df3f62e40ae77627a7d106c0, type: 2}
      Amount: 99
    - Item: {fileID: 11400000, guid: ebfbb9c442eebdd449f6133096ebdf69, type: 2}
      Amount: 99
    - Item: {fileID: 11400000, guid: 539a8e6daa69bee40a7f0a08473ef844, type: 2}
      Amount: 99
    - Item: {fileID: 11400000, guid: 66d12efda60e5e1418c02cc09d010c3c, type: 2}
      Amount: 99
    - Item: {fileID: 11400000, guid: 532a89a7f247623419ffad36cd09e840, type: 2}
      Amount: 99
    - Item: {fileID: 11400000, guid: 55f0161136f9cc44ea6850b8ca279f72, type: 2}
      Amount: 99
    - Item: {fileID: 11400000, guid: e050404a1ae591d43b5d04f44ab20a56, type: 2}
      Amount: 99
    - Item: {fileID: 11400000, guid: b729f23c00f782e45aae9c6321c2d39e, type: 2}
      Amount: 99
    - Item: {fileID: 11400000, guid: 0258c0b8266bda245aa91a4a7b5f49ca, type: 2}
      Amount: 1
    - Item: {fileID: 11400000, guid: 1b195f4add8becf4ebd051e2f534edab, type: 2}
      Amount: 1
  - id: 11
    layer: 12
    pos: {x: 0.5, y: 2.5, z: 0}
    sprite: {fileID: 2078503782, guid: 64bb17f300549a141bc80306b01df837, type: 3}
    type: 3
    estructura: {fileID: 0}
    typeEstructure: 0
    items:
    - Item: {fileID: 11400000, guid: 8ac14d1c412bf884c87d6ff7b60de997, type: 2}
      Amount: 1
    - Item: {fileID: 11400000, guid: f3501c270695fc149b925930c2b4c617, type: 2}
      Amount: 1
    - Item: {fileID: 11400000, guid: 4403891219adf3b45b9411d7dac4a0d2, type: 2}
      Amount: 1
    - Item: {fileID: 11400000, guid: 122a5b03585c5d040bf73007be1e2996, type: 2}
      Amount: 1
    - Item: {fileID: 11400000, guid: 598b78218ed330744865ba6ea3555b56, type: 2}
      Amount: 1
    - Item: {fileID: 11400000, guid: 43d837dd5d35ad44c8d6bb2a8bc6351b, type: 2}
      Amount: 1
    - Item: {fileID: 11400000, guid: a0448f0020e1ec44a8c010f448e53216, type: 2}
      Amount: 1
    - Item: {fileID: 11400000, guid: e8d0bc6b72d711344937378d0fa002db, type: 2}
      Amount: 1
    - Item: {fileID: 11400000, guid: 7607aaeeed0f52746ac47d64fbc3aad1, type: 2}
      Amount: 1
    - Item: {fileID: 11400000, guid: 3f9ea95dbbc49934ab3700f44fdb499d, type: 2}
      Amount: 1
    - Item: {fileID: 11400000, guid: 3a83d732af89752478f96d009cb1b674, type: 2}
      Amount: 1
    - Item: {fileID: 11400000, guid: d9262eae167bc8743bf46df2e61b7762, type: 2}
      Amount: 1
    - Item: {fileID: 11400000, guid: 3b26c00ce09c6f84c99e505eca0841f1, type: 2}
      Amount: 10
    - Item: {fileID: 11400000, guid: e0ee9589f43817b4f832b867275cd22a, type: 2}
      Amount: 1
    - Item: {fileID: 11400000, guid: 5e85ad3acced31c4a82a4c5f04334135, type: 2}
      Amount: 1
    - Item: {fileID: 11400000, guid: 9ec5960b3521a26428a2f440bc54ad45, type: 2}
      Amount: 99
    - Item: {fileID: 11400000, guid: 4306160170b6b1c49972bed26846db21, type: 2}
      Amount: 99
    - Item: {fileID: 11400000, guid: 3b3f85c168133cd4ea1cb6bce65afc59, type: 2}
      Amount: 99
    - Item: {fileID: 11400000, guid: 1d8b8b7e4084df84baaf52c68804c170, type: 2}
      Amount: 99
    - Item: {fileID: 11400000, guid: 8e2a8bb8c55dcf34ba302edbfb736b31, type: 2}
      Amount: 99
    - Item: {fileID: 11400000, guid: a7b46a4dd7b625640859886efd7f6095, type: 2}
      Amount: 99
    - Item: {fileID: 11400000, guid: 977cc2598b5c2f74eacaea2060099d60, type: 2}
      Amount: 99
    - Item: {fileID: 11400000, guid: 44d1e9e7dcd245e4abb511736ea156be, type: 2}
      Amount: 99
    - Item: {fileID: 11400000, guid: 0d42137d76f72904cb3e0932145275d1, type: 2}
      Amount: 99
    - Item: {fileID: 11400000, guid: b07b1126f5d2ca444821a05d650a53a1, type: 2}
      Amount: 99
    - Item: {fileID: 11400000, guid: 1bf8d958fdf29c64c80bf8bbcd2ecf13, type: 2}
      Amount: 99
    - Item: {fileID: 11400000, guid: d9c94e57df3f62e40ae77627a7d106c0, type: 2}
      Amount: 99
    - Item: {fileID: 11400000, guid: ebfbb9c442eebdd449f6133096ebdf69, type: 2}
      Amount: 99
    - Item: {fileID: 11400000, guid: 539a8e6daa69bee40a7f0a08473ef844, type: 2}
      Amount: 99
    - Item: {fileID: 11400000, guid: 66d12efda60e5e1418c02cc09d010c3c, type: 2}
      Amount: 99
    - Item: {fileID: 11400000, guid: 532a89a7f247623419ffad36cd09e840, type: 2}
      Amount: 99
    - Item: {fileID: 11400000, guid: 55f0161136f9cc44ea6850b8ca279f72, type: 2}
      Amount: 99
    - Item: {fileID: 11400000, guid: e050404a1ae591d43b5d04f44ab20a56, type: 2}
      Amount: 99
    - Item: {fileID: 11400000, guid: b729f23c00f782e45aae9c6321c2d39e, type: 2}
      Amount: 99
    - Item: {fileID: 11400000, guid: 0258c0b8266bda245aa91a4a7b5f49ca, type: 2}
      Amount: 1
    - Item: {fileID: 11400000, guid: 1b195f4add8becf4ebd051e2f534edab, type: 2}
      Amount: 1
  - id: 4
    layer: 12
    pos: {x: -7.5, y: 124.5, z: 0}
    sprite: {fileID: -1425887329, guid: 64bb17f300549a141bc80306b01df837, type: 3}
    type: 3
    estructura: {fileID: 0}
    typeEstructure: 0
    items:
    - Item: {fileID: 11400000, guid: 5e85ad3acced31c4a82a4c5f04334135, type: 2}
      Amount: 1
    - Item: {fileID: 11400000, guid: cf2bececd7d37444b89b1da4c153cd9a, type: 2}
      Amount: 1
    - Item: {fileID: 11400000, guid: bb90b1c3b4de3504799cfa88acb9d86e, type: 2}
      Amount: 1
    - Item: {fileID: 11400000, guid: 27b4c55569d89904ea754bb1663cfe30, type: 2}
      Amount: 3
    - Item: {fileID: 11400000, guid: 55f0161136f9cc44ea6850b8ca279f72, type: 2}
      Amount: 7
    - Item: {fileID: 0}
      Amount: 1
    - Item: {fileID: 0}
      Amount: 1
    - Item: {fileID: 0}
      Amount: 1
    - Item: {fileID: 0}
      Amount: 1
    - Item: {fileID: 0}
      Amount: 1
    - Item: {fileID: 0}
      Amount: 1
    - Item: {fileID: 0}
      Amount: 1
    - Item: {fileID: 0}
      Amount: 1
    - Item: {fileID: 0}
      Amount: 1
    - Item: {fileID: 0}
      Amount: 1
    - Item: {fileID: 0}
      Amount: 1
    - Item: {fileID: 0}
      Amount: 1
    - Item: {fileID: 0}
      Amount: 1
    - Item: {fileID: 0}
      Amount: 1
    - Item: {fileID: 0}
      Amount: 1
    - Item: {fileID: 0}
      Amount: 1
    - Item: {fileID: 0}
      Amount: 1
    - Item: {fileID: 0}
      Amount: 1
    - Item: {fileID: 0}
      Amount: 1
    - Item: {fileID: 0}
      Amount: 1
    - Item: {fileID: 0}
      Amount: 1
    - Item: {fileID: 0}
      Amount: 1
    - Item: {fileID: 0}
      Amount: 1
    - Item: {fileID: 0}
      Amount: 1
    - Item: {fileID: 0}
      Amount: 1
    - Item: {fileID: 0}
      Amount: 1
    - Item: {fileID: 0}
      Amount: 1
    - Item: {fileID: 0}
      Amount: 1
    - Item: {fileID: 0}
      Amount: 1
    - Item: {fileID: 0}
      Amount: 1
    - Item: {fileID: 0}
      Amount: 1
  - id: 54
    layer: 12
    pos: {x: 8.5, y: 6.5, z: 0}
    sprite: {fileID: -1425887329, guid: 64bb17f300549a141bc80306b01df837, type: 3}
    type: 3
    estructura: {fileID: 0}
    typeEstructure: 0
    items:
    - Item: {fileID: 0}
      Amount: 1
    - Item: {fileID: 0}
      Amount: 1
    - Item: {fileID: 0}
      Amount: 1
    - Item: {fileID: 0}
      Amount: 1
    - Item: {fileID: 0}
      Amount: 1
    - Item: {fileID: 0}
      Amount: 1
    - Item: {fileID: 0}
      Amount: 1
    - Item: {fileID: 0}
      Amount: 1
    - Item: {fileID: 0}
      Amount: 1
    - Item: {fileID: 0}
      Amount: 1
    - Item: {fileID: 0}
      Amount: 1
    - Item: {fileID: 0}
      Amount: 1
    - Item: {fileID: 0}
      Amount: 1
    - Item: {fileID: 0}
      Amount: 1
    - Item: {fileID: 0}
      Amount: 1
    - Item: {fileID: 0}
      Amount: 1
    - Item: {fileID: 0}
      Amount: 1
    - Item: {fileID: 0}
      Amount: 1
    - Item: {fileID: 0}
      Amount: 1
    - Item: {fileID: 0}
      Amount: 1
    - Item: {fileID: 0}
      Amount: 1
    - Item: {fileID: 0}
      Amount: 1
    - Item: {fileID: 0}
      Amount: 1
    - Item: {fileID: 0}
      Amount: 1
    - Item: {fileID: 0}
      Amount: 1
    - Item: {fileID: 0}
      Amount: 1
    - Item: {fileID: 0}
      Amount: 1
    - Item: {fileID: 0}
      Amount: 1
    - Item: {fileID: 0}
      Amount: 1
    - Item: {fileID: 0}
      Amount: 1
    - Item: {fileID: 0}
      Amount: 1
    - Item: {fileID: 0}
      Amount: 1
    - Item: {fileID: 0}
      Amount: 1
    - Item: {fileID: 0}
      Amount: 1
    - Item: {fileID: 0}
      Amount: 1
    - Item: {fileID: 0}
      Amount: 1
  - id: 23
    layer: 12
    pos: {x: 8.5, y: 6.5, z: 0}
    sprite: {fileID: -1425887329, guid: 64bb17f300549a141bc80306b01df837, type: 3}
    type: 3
    estructura: {fileID: 0}
    typeEstructure: 0
    items:
    - Item: {fileID: 0}
      Amount: 1
    - Item: {fileID: 0}
      Amount: 1
    - Item: {fileID: 0}
      Amount: 1
    - Item: {fileID: 0}
      Amount: 1
    - Item: {fileID: 0}
      Amount: 1
    - Item: {fileID: 0}
      Amount: 1
    - Item: {fileID: 0}
      Amount: 1
    - Item: {fileID: 0}
      Amount: 1
    - Item: {fileID: 0}
      Amount: 1
    - Item: {fileID: 0}
      Amount: 1
    - Item: {fileID: 0}
      Amount: 1
    - Item: {fileID: 0}
      Amount: 1
    - Item: {fileID: 0}
      Amount: 1
    - Item: {fileID: 0}
      Amount: 1
    - Item: {fileID: 0}
      Amount: 1
    - Item: {fileID: 0}
      Amount: 1
    - Item: {fileID: 0}
      Amount: 1
    - Item: {fileID: 0}
      Amount: 1
    - Item: {fileID: 0}
      Amount: 1
    - Item: {fileID: 0}
      Amount: 1
    - Item: {fileID: 0}
      Amount: 1
    - Item: {fileID: 0}
      Amount: 1
    - Item: {fileID: 0}
      Amount: 1
    - Item: {fileID: 0}
      Amount: 1
    - Item: {fileID: 0}
      Amount: 1
    - Item: {fileID: 0}
      Amount: 1
    - Item: {fileID: 0}
      Amount: 1
    - Item: {fileID: 0}
      Amount: 1
    - Item: {fileID: 0}
      Amount: 1
    - Item: {fileID: 0}
      Amount: 1
    - Item: {fileID: 0}
      Amount: 1
    - Item: {fileID: 0}
      Amount: 1
    - Item: {fileID: 0}
      Amount: 1
    - Item: {fileID: 0}
      Amount: 1
    - Item: {fileID: 0}
      Amount: 1
    - Item: {fileID: 0}
      Amount: 1
  - id: 53
    layer: 12
    pos: {x: -7.5, y: 124.5, z: 0}
    sprite: {fileID: -1425887329, guid: 64bb17f300549a141bc80306b01df837, type: 3}
    type: 3
    estructura: {fileID: 0}
    typeEstructure: 0
    items:
    - Item: {fileID: 11400000, guid: 5e85ad3acced31c4a82a4c5f04334135, type: 2}
      Amount: 1
    - Item: {fileID: 11400000, guid: cf2bececd7d37444b89b1da4c153cd9a, type: 2}
      Amount: 1
    - Item: {fileID: 11400000, guid: bb90b1c3b4de3504799cfa88acb9d86e, type: 2}
      Amount: 1
    - Item: {fileID: 11400000, guid: 27b4c55569d89904ea754bb1663cfe30, type: 2}
      Amount: 3
    - Item: {fileID: 11400000, guid: 55f0161136f9cc44ea6850b8ca279f72, type: 2}
      Amount: 7
    - Item: {fileID: 0}
      Amount: 1
    - Item: {fileID: 0}
      Amount: 1
    - Item: {fileID: 0}
      Amount: 1
    - Item: {fileID: 0}
      Amount: 1
    - Item: {fileID: 0}
      Amount: 1
    - Item: {fileID: 0}
      Amount: 1
    - Item: {fileID: 0}
      Amount: 1
    - Item: {fileID: 0}
      Amount: 1
    - Item: {fileID: 0}
      Amount: 1
    - Item: {fileID: 0}
      Amount: 1
    - Item: {fileID: 0}
      Amount: 1
    - Item: {fileID: 0}
      Amount: 1
    - Item: {fileID: 0}
      Amount: 1
    - Item: {fileID: 0}
      Amount: 1
    - Item: {fileID: 0}
      Amount: 1
    - Item: {fileID: 0}
      Amount: 1
    - Item: {fileID: 0}
      Amount: 1
    - Item: {fileID: 0}
      Amount: 1
    - Item: {fileID: 0}
      Amount: 1
    - Item: {fileID: 0}
      Amount: 1
    - Item: {fileID: 0}
      Amount: 1
    - Item: {fileID: 0}
      Amount: 1
    - Item: {fileID: 0}
      Amount: 1
    - Item: {fileID: 0}
      Amount: 1
    - Item: {fileID: 0}
      Amount: 1
    - Item: {fileID: 0}
      Amount: 1
    - Item: {fileID: 0}
      Amount: 1
    - Item: {fileID: 0}
      Amount: 1
    - Item: {fileID: 0}
      Amount: 1
    - Item: {fileID: 0}
      Amount: 1
    - Item: {fileID: 0}
      Amount: 1
  - id: 12
    layer: 12
    pos: {x: 8.5, y: 6.5, z: 0}
    sprite: {fileID: -1425887329, guid: 64bb17f300549a141bc80306b01df837, type: 3}
    type: 3
    estructura: {fileID: 0}
    typeEstructure: 0
    items:
    - Item: {fileID: 0}
      Amount: 1
    - Item: {fileID: 0}
      Amount: 1
    - Item: {fileID: 0}
      Amount: 1
    - Item: {fileID: 0}
      Amount: 1
    - Item: {fileID: 0}
      Amount: 1
    - Item: {fileID: 0}
      Amount: 1
    - Item: {fileID: 0}
      Amount: 1
    - Item: {fileID: 0}
      Amount: 1
    - Item: {fileID: 0}
      Amount: 1
    - Item: {fileID: 0}
      Amount: 1
    - Item: {fileID: 0}
      Amount: 1
    - Item: {fileID: 0}
      Amount: 1
    - Item: {fileID: 0}
      Amount: 1
    - Item: {fileID: 0}
      Amount: 1
    - Item: {fileID: 0}
      Amount: 1
    - Item: {fileID: 0}
      Amount: 1
    - Item: {fileID: 0}
      Amount: 1
    - Item: {fileID: 0}
      Amount: 1
    - Item: {fileID: 0}
      Amount: 1
    - Item: {fileID: 0}
      Amount: 1
    - Item: {fileID: 0}
      Amount: 1
    - Item: {fileID: 0}
      Amount: 1
    - Item: {fileID: 0}
      Amount: 1
    - Item: {fileID: 0}
      Amount: 1
    - Item: {fileID: 0}
      Amount: 1
    - Item: {fileID: 0}
      Amount: 1
    - Item: {fileID: 0}
      Amount: 1
    - Item: {fileID: 0}
      Amount: 1
    - Item: {fileID: 0}
      Amount: 1
    - Item: {fileID: 0}
      Amount: 1
    - Item: {fileID: 0}
      Amount: 1
    - Item: {fileID: 0}
      Amount: 1
    - Item: {fileID: 0}
      Amount: 1
    - Item: {fileID: 0}
      Amount: 1
    - Item: {fileID: 0}
      Amount: 1
    - Item: {fileID: 0}
      Amount: 1
  NPCS:
  - id: 0
    layer: 0
    pos: {x: 0, y: 0, z: 0}
    sprite: {fileID: 21300000, guid: 04b4692ba3bbf4240a50398c4696f6c6, type: 3}
    type: 0
    nivelAmistad: 0
    personalidad: {fileID: 11400000, guid: cdcca544a4977e14395bacdb1c492a61, type: 2}
    script: 0
    name: 
    hp: 5.7
    MaxHP: 12.15
    speed: 0.6
    sprites: []
  tiles:
    tiles: []
    target: []
  Init: {x: -31.5, y: -25.5, z: 0}
  Finish: {x: 30.5, y: 25.5, z: 0}
