%YAML 1.1
%TAG !u! tag:unity3d.com,2011:
--- !u!114 &11400000
MonoBehaviour:
  m_ObjectHideFlags: 0
  m_CorrespondingSourceObject: {fileID: 0}
  m_PrefabInstance: {fileID: 0}
  m_PrefabAsset: {fileID: 0}
  m_GameObject: {fileID: 0}
  m_Enabled: 1
  m_EditorHideFlags: 0
  m_Script: {fileID: 11500000, guid: c9e7b3cb6aecea244a2816c5d5336d79, type: 3}
  m_Name: CraftSemillaMaiz
  m_EditorClassIdentifier: 
  description: 
  ingredients:
  - ingredient: {fileID: 11400000, guid: ec1cab8ab7610c845ac0ffd459557715, type: 2}
    quantity: 1
  result: {fileID: 11400000, guid: bc331bb9bc0134140923a89521ba71de, type: 2}
