%YAML 1.1
%TAG !u! tag:unity3d.com,2011:
--- !u!114 &11400000
MonoBehaviour:
  m_ObjectHideFlags: 0
  m_CorrespondingSourceObject: {fileID: 0}
  m_PrefabInstance: {fileID: 0}
  m_PrefabAsset: {fileID: 0}
  m_GameObject: {fileID: 0}
  m_Enabled: 1
  m_EditorHideFlags: 0
  m_Script: {fileID: 11500000, guid: 9d6d91cca06461b40ace82e42ba4e2d5, type: 3}
  m_Name: MinigameRodaballo
  m_EditorClassIdentifier: 
  pezAlimento: {fileID: 11400000, guid: e050404a1ae591d43b5d04f44ab20a56, type: 2}
  speed: 6
  size: 0.9
  startCatchAmount: 0.45
  decreaseCatchAmount: 0.04
  fillAmount: 0.25
  unfillAmount: 0.2
