%YAML 1.1
%TAG !u! tag:unity3d.com,2011:
--- !u!114 &11400000
MonoBehaviour:
  m_ObjectHideFlags: 0
  m_CorrespondingSourceObject: {fileID: 0}
  m_PrefabInstance: {fileID: 0}
  m_PrefabAsset: {fileID: 0}
  m_GameObject: {fileID: 0}
  m_Enabled: 1
  m_EditorHideFlags: 0
  m_Script: {fileID: 11500000, guid: 3b138cda2f321f34086c1f531d0f5aba, type: 3}
  m_Name: testEquipable
  m_EditorClassIdentifier: 
  name: Equipable
  sprite: {fileID: 0}
  energiaQueGasta: 0
